Spotify
…
## The following objects are masked from 'package:base':
## 
##     intersect, setdiff, setequal, union

spotify = read.csv("~/Documents/Kevin Stuff/Not Work/website/Website Files/more website files/Spotify_Wrapped.csv")

spotify = spotify %>% group_by(Year) %>% mutate(Score = max(row_number()) + 1 - row_number())

spotify %>%
  group_by(Album)   %>%
  count(Album)      %>%
  rename(Count = n) %>%
  arrange(desc(Count))

## # A tibble: 238 x 2
## # Groups:   Album [238]
##    Album                                                    Count
##    <fct>                                                    <int>
##  1 Foreword                                                     4
##  2 If You're Reading This It's Too Late                         4
##  3 Unbreakable Smile                                            4
##  4 21                                                           3
##  5 a girl a bottle a boat                                       3
##  6 All American                                                 3
##  7 No Label II                                                  3
##  8 Simple Gospel (Live)                                         3
##  9 Spectacular! (Music from the Nickelodeon Original Movie)     3
## 10 Tha Carter IV (Deluxe)                                       3
## # ... with 228 more rows

spotify %>%
  group_by(Song, Artist.1, Artist.2, Artist.3, Artist.4, Artist.5, Artist.6) %>%
  count(Song, Artist.1, Artist.2, Artist.3, Artist.4, Artist.5, Artist.6, Total = sum(Score)) %>%
  rename(Appearances = n) %>%
  arrange(desc(Total), desc(Appearances))

## # A tibble: 268 x 9
## # Groups:   Song, Artist.1, Artist.2, Artist.3, Artist.4, Artist.5,
## #   Artist.6 [268]
##    Song      Artist.1   Artist.2 Artist.3 Artist.4 Artist.5 Artist.6 Total
##    <fct>     <fct>      <fct>    <fct>    <fct>    <fct>    <fct>    <dbl>
##  1 Far Away  Nickelback ""       ""       ""       ""       ""         185
##  2 Sweater … The Neigh… ""       ""       ""       ""       ""         162
##  3 Love Me … Ariana Gr… The Wee… ""       ""       ""       ""         133
##  4 Here Wit… 3 Doors D… ""       ""       ""       ""       ""         131
##  5 Kiss Me … Parachute  ""       ""       ""       ""       ""         130
##  6 What Abo… Daughtry   ""       ""       ""       ""       ""         126
##  7 Give Me … Elevation… ""       ""       ""       ""       ""         124
##  8 Somewher… Keane      ""       ""       ""       ""       ""         123
##  9 The Stand Hillsong … ""       ""       ""       ""       ""         120
## 10 Cough Sy… Young the… ""       ""       ""       ""       ""         118
## # ... with 258 more rows, and 1 more variable: Appearances <int>
…
bind_rows(a1, a2, a3, a4, a5, a6) %>%
  arrange(Artist) %>%
  group_by(Artist) %>%
  summarize(Total = sum(Total)) %>%
  arrange(desc(Total)) %>%
  tail(n = -1)

## # A tibble: 229 x 2
##    Artist              Total
##    <chr>               <int>
##  1 Drake                  15
##  2 Lil Wayne              10
##  3 Tori Kelly              8
##  4 Against The Current     5
##  5 ATC                     5
##  6 Jonas Brothers          5
##  7 Lifehouse               5
##  8 The Weeknd              5
##  9 Alex Goot               4
## 10 Elevation Worship       4
## # ... with 219 more rows
…
